simulation/qsim/Processor_16_Inst.msim.vcd
$comment
	File created using the following command:
		vcd file Processor_16_Inst.msim.vcd -direction
$end
$date
	Wed Mar 27 00:28:38 2024
$end
$version
	ModelSim Version 10.1d
$end
$timescale
	1ps
$end
$scope module Comparator_LG_16bit_vlg_vec_tst $end
$var reg 16 ! A [15:0] $end
$var reg 16 " B [15:0] $end
$var wire 1 # G $end
$var wire 1 $ L $end
$var wire 1 % sampler $end
$scope module i1 $end
$var wire 1 & gnd $end
$var wire 1 ' vcc $end
$var wire 1 ( unknown $end
$var tri1 1 ) devclrn $end
$var tri1 1 * devpor $end
$var tri1 1 + devoe $end
$var wire 1 , inst:2:comp|e~0_combout $end
$var wire 1 - inst:3:comp|g~2_combout $end
$var wire 1 . inst:1:comp|l~0_combout $end
$var wire 1 / inst:2:comp|g~0_combout $end
$var wire 1 0 inst:7:comp|l~0_combout $end
$var wire 1 1 inst:4:comp|l~0_combout $end
$var wire 1 2 inst:4:comp|l~1_combout $end
$var wire 1 3 inst:4:comp|l~2_combout $end
$var wire 1 4 inst:4:comp|l~3_combout $end
$var wire 1 5 inst:4:comp|g~0_combout $end
$var wire 1 6 inst:3:comp|g~0_combout $end
$var wire 1 7 inst:3:comp|l~0_combout $end
$var wire 1 8 inst:4:comp|g~1_combout $end
$var wire 1 9 inst:5:comp|e~0_combout $end
$var wire 1 : inst:6:comp|l~0_combout $end
$var wire 1 ; inst:6:comp|l~1_combout $end
$var wire 1 < inst:1:comp|g~0_combout $end
$var wire 1 = inst:2:comp|l~0_combout $end
$var wire 1 > inst:3:comp|g~1_combout $end
$var wire 1 ? inst:5:comp|g~2_combout $end
$var wire 1 @ inst:5:comp|l~0_combout $end
$var wire 1 A inst:5:comp|l~1_combout $end
$var wire 1 B inst:6:comp|g~0_combout $end
$var wire 1 C inst:7:comp|e~0_combout $end
$var wire 1 D inst:8:comp|l~0_combout $end
$var wire 1 E inst:5:comp|g~4_combout $end
$var wire 1 F inst:5:comp|g~3_combout $end
$var wire 1 G inst:7:comp|g~0_combout $end
$var wire 1 H inst:7:comp|l~1_combout $end
$var wire 1 I inst:8:comp|g~0_combout $end
$var wire 1 J inst:7:comp|g~1_combout $end
$var wire 1 K inst:7:comp|g~2_combout $end
$var wire 1 L inst:8:comp|l~1_combout $end
$var wire 1 M inst:10:comp|l~0_combout $end
$var wire 1 N inst:9:comp|g~0_combout $end
$var wire 1 O inst:9:comp|l~0_combout $end
$var wire 1 P inst:10:comp|g~0_combout $end
$var wire 1 Q inst:9:comp|g~1_combout $end
$var wire 1 R inst:10:comp|l~1_combout $end
$var wire 1 S inst:12:comp|l~0_combout $end
$var wire 1 T inst:11:comp|g~0_combout $end
$var wire 1 U inst:11:comp|g~1_combout $end
$var wire 1 V inst:12:comp|l~1_combout $end
$var wire 1 W inst:11:comp|l~0_combout $end
$var wire 1 X G~0_combout $end
$var wire 1 Y inst:12:comp|g~0_combout $end
$var wire 1 Z L~0_combout $end
$var wire 1 [ L~1_combout $end
$var wire 1 \ L~2_combout $end
$var wire 1 ] G~1_combout $end
$var wire 1 ^ G~2_combout $end
$var wire 1 _ G~3_combout $end
$var wire 1 ` B~combout [15] $end
$var wire 1 a B~combout [14] $end
$var wire 1 b B~combout [13] $end
$var wire 1 c B~combout [12] $end
$var wire 1 d B~combout [11] $end
$var wire 1 e B~combout [10] $end
$var wire 1 f B~combout [9] $end
$var wire 1 g B~combout [8] $end
$var wire 1 h B~combout [7] $end
$var wire 1 i B~combout [6] $end
$var wire 1 j B~combout [5] $end
$var wire 1 k B~combout [4] $end
$var wire 1 l B~combout [3] $end
$var wire 1 m B~combout [2] $end
$var wire 1 n B~combout [1] $end
$var wire 1 o B~combout [0] $end
$var wire 1 p A~combout [15] $end
$var wire 1 q A~combout [14] $end
$var wire 1 r A~combout [13] $end
$var wire 1 s A~combout [12] $end
$var wire 1 t A~combout [11] $end
$var wire 1 u A~combout [10] $end
$var wire 1 v A~combout [9] $end
$var wire 1 w A~combout [8] $end
$var wire 1 x A~combout [7] $end
$var wire 1 y A~combout [6] $end
$var wire 1 z A~combout [5] $end
$var wire 1 { A~combout [4] $end
$var wire 1 | A~combout [3] $end
$var wire 1 } A~combout [2] $end
$var wire 1 ~ A~combout [1] $end
$var wire 1 !! A~combout [0] $end
$upscope $end
$upscope $end
$enddefinitions $end
#0
$dumpvars
b110000011011010 !
b1101101010011001 "
1#
0$
x%
0&
1'
x(
1)
1*
1+
1,
1-
0.
1/
00
11
02
03
14
05
06
17
18
19
0:
1;
1<
0=
1>
0?
1@
0A
1B
0C
0D
0E
1F
1G
0H
1I
0J
1K
0L
0M
0N
0O
1P
1Q
0R
0S
0T
1U
0V
0W
0X
1Y
1Z
0[
0\
0]
0^
1_
1o
0n
0m
1l
1k
0j
0i
1h
0g
1f
0e
1d
1c
0b
1a
1`
0!!
1~
0}
1|
1{
0z
1y
1x
0w
0v
0u
0t
0s
1r
1q
0p
$end
#10000
b1110000011011010 !
b1100000011011010 !
b1100100011011010 !
b1100110011011010 !
b1100110111011010 !
b1100110101011010 !
b1100110100011010 !
b1100110100010010 !
b1100110100010000 !
b1100110100010001 !
b101101010011001 "
b1101010011001 "
b11101010011001 "
b10101010011001 "
b10001010011001 "
b10001010111001 "
1j
0d
0c
1b
0a
0`
1!!
0~
0|
0y
0x
1w
1u
1t
0r
1p
0%
01
0,
0_
1\
1C
10
0G
1E
15
0#
1$
#20000
b1100110100110001 !
b1100110100110101 !
b10000010111001 "
b10000010101001 "
b10000010100001 "
b10000010100101 "
b10000010100111 "
b10000010100110 "
b100110100110101 !
b110110100110101 !
b110010100110101 !
b110010000110101 !
b110010010110101 !
b110010010111101 !
b1010000010100110 "
b1000000010100110 "
b1001000010100110 "
0o
1n
1m
0l
0k
0f
1c
0b
1`
1}
1|
1z
1x
0w
0t
1r
0p
1%
1]
09
11
1,
1_
0\
0C
00
1G
12
13
1#
0$
#30000
b1001010010100110 "
b1001010110100110 "
b110010011111101 !
b110010011111111 !
b1101010110100110 "
b1101110110100110 "
b110010011011111 !
b110010011011011 !
b1101111110100110 "
b1101111110101110 "
b1101111110101010 "
b1101111110101000 "
b110010111011011 !
b110010101011011 !
b110010101010011 !
1~
0}
0|
0z
1y
0x
1w
0n
0m
1l
1g
1f
1e
1d
1a
0%
1C
10
0E
19
05
02
03
#40000
b10010101010011 !
b10011101010011 !
b10011101000011 !
b10001101000011 !
b10001101000010 !
b1101111110101001 "
b1010001101000010 !
b1000001101000010 !
b1111111110101001 "
b1111111010101001 "
b1000001100000010 !
b1000001100000000 !
b1111011010101001 "
b1000001100100000 !
b1111011010100001 "
b1000001000100000 !
b1000001010100000 !
b1000001010101000 !
1o
0l
0g
0d
1b
0!!
0~
1|
0{
1z
0y
1x
0w
1v
0u
0r
0q
1p
1%
0]
12
0<
01
1.
0C
00
1E
09
1=
0/
0-
08
0F
1A
0K
0G
0B
1N
1L
1H
0Q
0N
0I
1T
1R
1O
0U
0T
0P
1X
1V
1W
1[
1]
1\
0Y
0X
0_
0[
1$
0#
#50000
b1111011011100001 "
b1111011011000001 "
b1111011011010001 "
b111011011010001 "
b1000001010101100 !
b111011011010101 "
b1000000010101100 !
b1000010010101100 !
b111011011010100 "
b10010101100 !
b10010010101100 !
b101011011010100 "
b101011111010100 "
b101111111010100 "
b101111111011100 "
b10010110101100 !
b10010100101100 !
1}
0x
1w
0v
1u
1r
0p
0o
1m
1l
1k
0j
1i
1g
1d
0b
0`
0%
1C
10
0E
19
11
0\
0Z
02
0$
#60000
b11010100101100 !
b101111101011100 "
b11110100101100 !
b1111101011100 "
b1110101011100 "
b1110101011110 "
b111110100101100 !
b111110100111100 !
b111110100111110 !
b111110100011110 !
b111110100011010 !
b101110100011010 !
b1110001011110 "
1n
0h
0g
0f
0a
1~
0}
1{
0z
1t
1s
0r
1q
1%
0C
00
09
1<
0.
12
0,
0=
1/
13
1-
18
1F
0A
1K
1D
1B
0L
0H
0D
1Q
1M
1I
0R
0O
0M
1U
1S
1P
0V
0W
0S
0]
1Y
1_
1Z
1#
#70000
b1100001011110 "
b101110100010010 !
b1100000011110 "
b1100000111110 "
b1100000101110 "
b11100000101110 "
b11100000100110 "
b101110000010010 !
b101110010010010 !
b11100010100110 "
b111100010100110 "
b111101010100110 "
b111101010100100 "
b1110010010010 !
b1110010110010 !
b1110010110110 !
b11110010110110 !
1}
0|
1z
1x
0w
1r
0q
0n
0l
0k
1j
0i
1h
1f
0e
1b
1a
0%
1G
0<
1.
03
1E
19
15
1=
0/
0-
08
0F
1A
0K
0G
0B
1N
1L
1H
0Q
0N
0I
1R
1O
0U
0P
1X
1V
1W
1^
1]
0Y
0X
0^
0Z
0_
0#
#80000
b11110010110111 !
b1111101010100100 "
b1111101010100000 "
b11111010110111 !
b11101010110111 !
b11101010100111 !
b1111101110100000 "
b1111101111100000 "
b1111101111000000 "
b1111101111010000 "
b1101101111010000 "
b11101000100111 !
b1001101111010000 "
b1001101111010010 "
b111101000100111 !
b111101000100011 !
1n
0m
1k
0j
1i
1g
0b
0a
1`
1!!
0}
0{
0x
1v
0u
1q
1%
1<
0.
13
1_
1\
1C
10
0E
09
05
0=
1/
04
1#
1$
1-
18
14
1F
1:
0:
0A
1K
1B
0L
0H
1Q
1I
0R
0O
1U
1S
1P
0V
0W
0S
0\
1Y
0$
1Z
#90000
b1000101111010010 "
b111101001100011 !
b1000101111010011 "
b1111101001100011 !
b1000001111010011 "
b1110101001100011 !
b1110101001101011 !
b1000001101010011 "
b1000000101010011 "
b1110101001001011 !
b1000000101010111 "
b1110100001001011 !
b1110110001001011 !
b1000000001010111 "
b1000000001110111 "
b1000000001100111 "
b1010110001001011 !
1|
0z
1y
0v
1u
0s
0q
1p
1o
1m
0k
1j
0h
0g
0f
0d
0c
0%
1E
15
0]
0C
00
1G
02
03
#100000
b1000010001100111 "
b10001100111 "
b10000100111 "
b1010110011001011 !
b10000100101 "
b1010110011001111 !
b1010000100101 "
b1010110010001111 !
b10110010001111 !
b10110010000111 !
b1011000100101 "
b1011000100001 "
b10111010000111 !
b1011000000001 "
b110111010000111 !
1}
0|
0y
1x
1v
1q
0p
0n
0m
0j
0i
1f
1e
1c
0`
1%
1J
1C
0E
05
1,
#110000
b110011010000111 !
b110011010000101 !
b1011000001001 "
b100011010000101 !
b11011000001001 "
b111011000001001 "
b111011000001000 "
b111011010001000 "
b100001010000101 !
b111001010001000 "
b1111001010001000 "
b100001010000001 !
b100001011000001 !
b1100001011000001 !
b1111001010001100 "
b1100000011000001 !
b1000000011000001 !
0o
1m
1l
1h
0e
1b
1a
1`
0~
0}
1y
0v
0u
0t
0r
0q
1p
0%
1]
0J
0C
0<
01
1.
19
12
1=
0/
0-
08
0F
1A
0K
0G
0B
1L
1H
0Q
0I
1T
1R
1O
0U
0T
0P
1V
1W
1\
0Y
0_
0Z
1$
0#
#120000
b1111001110001100 "
b1111001110011100 "
b1111001111011100 "
b1111001111011110 "
b1000000011001001 !
b1111000111011110 "
b1000100011001001 !
b1000100011001011 !
b1101000111011110 "
b1101000101011110 "
b1101010101011110 "
b101010101011110 "
b1000100010001011 !
b101010101011010 "
b1000101010001011 !
b1100101010001011 !
1~
1|
0y
1v
1t
1q
1n
0m
1k
1i
0h
1g
0f
1e
0b
0`
1%
1E
02
16
0.
1J
1C
#130000
b1100101010001010 !
b1100101010011010 !
b101110101011010 "
b100110101011010 "
b100110101010010 "
b1100101010011110 !
b100101010011110 !
b100110101000010 "
b100110101000000 "
b100001010011110 !
b100001010011100 !
b100110111000000 "
b100100111000000 "
b100000010011100 !
b10011100 !
0n
0l
0k
1h
0e
1d
0c
0!!
0~
1}
1{
0v
0t
0q
0p
0%
0J
0C
0E
0=
11
0,
09
06
1.
0\
1-
1=
0$
1F
1:
0-
1K
1D
0F
0:
0L
0K
0D
1Q
1M
1L
0R
0Q
0M
1U
1R
0V
0U
0]
1V
1]
#140000
b110011100 !
b1000110011100 !
b1000110111100 !
b11000110111100 !
b100111000000 "
b100011000000 "
b11000110110100 !
b10100011000000 "
b1010100011000000 "
b11000111110100 !
b1010100011000100 "
b11000111100100 !
b1010100011001100 "
b11000111100000 !
b1011000111100000 !
b1010100011001110 "
b1011100111100000 !
b1010100001001110 "
1n
1m
1l
0h
0g
1b
0a
1`
0}
0|
0{
1z
1y
1w
1t
1s
1r
1p
1%
1J
1C
16
0.
1\
12
1,
0=
1/
13
1$
1-
18
1F
0A
1K
1B
0L
0H
1Q
1I
0R
0O
1U
1P
0V
0W
0]
0\
1Y
1_
1Z
0$
1#
#150000
b1011100101100000 !
b1010100001101110 "
b1011110101100000 !
b1011110101100001 !
b1010000001101110 "
b1010000001111110 "
b1010010001111110 "
b1011111101100001 !
b1001111101100001 !
b1010010101111110 "
b1000010101111110 "
b10101111110 "
b10101110110 "
b1001111101100101 !
b10101110100 "
b1001011101100101 !
b10111110100 "
0n
0l
1k
1j
1h
1g
1e
0d
0b
0`
1!!
1}
0x
1v
1u
0t
0r
0%
0J
10
1G
1E
0_
1\
1]
19
0#
1$
#160000
b11111110100 "
b1001011101100111 !
b1001011001100111 !
b100011111110100 "
b100011111110000 "
b1001011001110111 !
b1011001110111 !
b1001001110111 !
b1001001110110 !
b100001111110000 "
b1000001110110 !
b100001111110010 "
b100001101110010 "
0!!
1~
1{
0w
0v
0u
0p
1n
0m
0h
1f
0e
1a
1%
0]
0G
0E
1_
0\
0C
00
06
03
1.
1=
0/
1#
0$
0-
08
0F
1A
0K
0B
1N
1L
1H
0Q
0N
0I
1T
1R
1O
0U
0T
0P
1V
1W
1]
0Y
0_
0Z
0#
#170000
b100001101110011 "
b100001100110011 "
b1110110 !
b1111110 !
b11111110 !
b100101100110011 "
b100101100100011 "
b10000011111110 !
b110101100100011 "
b110100100100011 "
b10000111111110 !
b110100100100111 "
b10001111111110 !
b110100100100101 "
b110100110100101 "
1|
1x
1w
1v
0s
1r
1o
0n
1m
0k
0i
1h
0f
1d
1b
0%
1E
0,
1Z
02
#180000
b10001111011110 !
b110100110000101 "
b110100010000101 "
b110100010001101 "
b10100010001101 "
b10001111001110 !
b10011111001110 !
b11011111001110 !
b10101010001101 "
b10101010001111 "
b10101000001111 "
1n
1l
0j
0h
0g
1f
0a
0{
0z
1u
1s
1%
1J
1C
09
16
0.
15
1,
0=
1/
1-
18
1F
0A
1K
1B
0L
0H
1Q
1M
1I
0R
0O
0M
1U
1S
1P
0V
0W
0S
0]
1Y
1_
1#
#190000
b11011111001100 !
b11011111001101 !
b11011111000101 !
b11011011000101 !
b11011011100101 !
b10101000101111 "
b10101100101111 "
b110101100101111 "
b110100100101111 "
b110100100101101 "
b110100110101101 "
0n
1j
1h
1g
0f
1a
1!!
0~
0|
1z
0w
0%
0J
0C
19
06
1.
1=
0/
0-
08
0F
1A
0K
0B
1L
1H
0Q
0I
1T
1R
1O
0U
0T
0P
1X
1V
1W
1[
1]
0Y
0X
0_
0Z
0[
0#
#200000
b111100110101101 "
b111011011100101 !
b111011011100001 !
b111100111101101 "
b101100111101101 "
b111010011100001 !
b101100111100101 "
b110010011100001 !
b110010011100011 !
b110010011100010 !
b101100111000101 "
b101100011000101 "
b101100011000111 "
0!!
1~
0}
0v
0s
1q
1n
0l
0j
1i
0g
1c
0b
1%
1Z
09
1<
0.
0=
1/
1-
18
1F
0A
1K
1D
1G
1B
0L
0H
0D
1Q
1I
0R
0O
1U
1S
1P
0V
0W
0S
0]
1Y
1_
1#
#210000
b110010010100010 !
b1101100011000111 "
b110110010100010 !
b1101110011000111 "
b1101110011000110 "
b110110000100010 !
b1101010011000110 "
b1101010011010110 "
b1101010011010010 "
b110110000110010 !
b1101011011010010 "
b1101011001010010 "
b1100011001010010 "
b10110000110010 !
b10110000110110 !
b1110011001010010 "
b1110011001011010 "
b11110000110110 !
b11110000110111 !
b1110011101011010 "
b1110011101011000 "
0o
0n
0m
1l
1k
0h
1g
1f
1e
0d
0c
1b
1`
1!!
1}
1{
0y
0x
1t
1s
0q
0%
1]
0G
0E
19
05
0<
1.
1=
0/
0-
08
0F
1A
0K
0B
1L
1H
0Q
0I
1T
1R
1O
0U
0T
0P
1V
1W
1\
0Y
0Z
1$
#220000
b1110000110111 !
b1110011100011000 "
b1111000110111 !
b1110011100111000 "
b1111001110111 !
b1110011100111001 "
b1111011110111 !
b1110111100111001 "
b1111011100111 !
b1110111110111001 "
b101111011100111 !
b1100111110111001 "
b1100111010111001 "
1o
1j
0i
1h
0g
1d
0b
0{
1y
1x
1v
0r
1q
1%
12
16
0.
09
13
0=
1/
18
1-
0A
1F
1G
1B
1K
1D
0H
0D
0L
1I
1Q
1M
0O
0M
0R
1P
1U
0W
0V
1Y
0]
0\
1Z
0$
#230000
b1101111011100111 !
b1101111011101111 !
b1000111010111001 "
b1101111011101011 !
b1000111010110001 "
b1101111011101010 !
b1000111010110011 "
b1111111011101010 !
b1111110011101010 !
b1000111010010011 "
b1111110011111010 !
b1011110011111010 !
b1010111010010011 "
b1010111110010011 "
1n
0l
0j
1g
1b
0a
0!!
0}
1|
1{
0v
1r
0q
1p
0%
0G
19
#240000
b1011110111111010 !
b1011110111011010 !
b1011010111011010 !
b1010101110010011 "
b1010101110000011 "
b1010101110000111 "
b1010100110000111 "
b1011100110000111 "
b1011010110011010 !
b1011100110000110 "
b1011100100000110 "
b1111100100000110 "
b1111100100001110 "
b1111100100001100 "
b1001010110011010 !
b1111100100101100 "
b1101010110011010 !
0o
0n
1m
1l
0k
1j
0h
0f
0e
1c
1a
0z
0y
1w
0t
0r
1q
1%
1J
1C
1E
09
15
01
0/
0,
06
1.
1G
02
08
03
04
1=
1A
1:
14
0-
0G
0B
0;
0F
0:
1H
1;
0I
0K
1O
1L
0P
0Q
1W
1S
1R
0Y
0U
0S
0_
0Z
1V
1]
1\
0#
1$
#250000
b1101000110011010 !
b1101000110011000 !
b111100100101100 "
b1101000100011000 !
b1101000100010000 !
b1101001100010000 !
b101100100101100 "
b1101101100010000 !
b101110100101100 "
b101110100111100 "
b101111100111100 "
b1111100111100 "
b1111100110100 "
b1111100110110 "
b1001101100010000 !
1n
0l
1k
1f
1e
0b
0a
0`
0~
0|
0x
1v
0u
1t
0q
0%
05
16
11
0.
0J
0C
12
0>
0=
07
13
1?
0@
#260000
b1000101100010000 !
b1011100110110 "
b101100010000 !
b101100010100 !
b1011000110110 "
b1011000110010 "
b101100010110 !
b100100010110 !
b1001000110010 "
b1000000110010 "
b1000000110000 "
0n
0m
0g
0f
0e
0d
1~
1}
0v
0s
0p
1%
0E
0A
04
1>
02
1=
01
1,
0\
1B
1:
03
17
0$
0H
0;
14
0?
1N
1I
1K
0:
1@
0O
0N
0L
1;
1A
1T
1P
1Q
0K
0B
0W
0T
0R
1N
1L
1H
1Y
1U
0Q
0N
0I
1_
1Z
0V
1T
1R
1O
0]
0U
0T
0P
1#
1V
1W
1]
0Y
0_
0Z
0#
#270000
b1000001110000 "
b100000010110 !
b100000110110 !
b1110000 "
b1110001 "
b11110001 "
b10100000110110 !
b11010001 "
b10110000110110 !
b10110000111110 !
b10000011010001 "
b10010000111110 !
b110000011010001 "
b110000011011001 "
b110010000111110 !
b1110010000111110 !
b110000111011001 "
b110000111011101 "
b1110011000111110 !
b110001111011101 "
1|
1z
0w
1v
1u
0t
1r
1q
1p
1o
1m
1l
0j
1i
1h
1g
1f
0c
1b
1a
0%
1E
15
12
11
1\
1Z
1C
10
0=
0,
13
1-
0>
07
1$
18
04
1F
1:
1?
0-
0A
0:
1K
0@
1B
0L
0H
1Q
1I
0R
0O
1U
1S
1P
0V
0W
0S
0]
1Y
#280000
b1110011000101110 !
b1110011001101110 !
b1111011001101110 !
b1111011001101100 !
b110011111011101 "
b1111011101101100 !
b1111011101001100 !
b111011111011101 "
b111011111011100 "
b1101011101001100 !
b1101011101000100 !
b11011111011100 "
b101011101000100 !
b11011011011100 "
b11011011011000 "
0o
0m
0g
1e
1c
0a
0~
0|
0{
0z
1y
1w
1s
0r
0p
1%
0E
05
01
1<
06
1_
0\
0F
08
1>
17
1/
1#
0$
0K
1:
0?
1-
18
14
1N
1L
0;
1F
1@
0:
0Q
1K
1;
1R
0N
0L
0U
1Q
1V
0R
1]
1U
0V
0]
#290000
b11011011001000 "
b11011011001010 "
b11011010001010 "
b11011000001010 "
b11011000101010 "
b101001101000100 !
b101101101000100 !
b11011000100010 "
b101100101000100 !
b101100101100100 !
b10011000100010 "
b10011000100011 "
b110011000100011 "
b1101100101100100 !
1z
0v
0u
1t
1p
1o
1n
0l
0k
1j
0i
0h
0c
1a
0%
1E
19
02
0_
1\
0C
00
1,
0<
03
1.
1=
0/
0#
1$
0-
08
0F
1A
0K
0B
1L
1H
0Q
0I
1T
1R
1O
0U
0T
0P
1V
1W
1]
0Y
#300000
b1101100101100101 !
b1101100111100101 !
b110111000100011 "
b100111000100011 "
b1001100111100101 !
b1001100111100111 !
b100101000100011 "
b1011100111100111 !
b100101000110011 "
b100101001110011 "
b100101011110011 "
b1011101111100111 !
b100101011110010 "
b101011110010 "
0o
1k
1i
1h
0e
1d
0b
0a
1!!
1~
1x
1v
1r
0q
1%
0Z
0E
12
1<
11
0.
09
13
0=
1/
18
1-
0A
1F
1B
1K
1D
0H
0D
0L
1I
1Q
1M
0O
0M
0R
1P
1U
1S
0W
0S
0V
1Y
1Z
#310000
b1000101011110010 "
b1011101111100011 !
b1000100011110010 "
b1011101111101011 !
b1000100111110010 "
b1000100111010010 "
b1011001111101011 !
b1011001111001011 !
b1011001111001010 !
b1011001101001010 !
b1010100111010010 "
b1011001101001000 !
b1001001101001000 !
b1010100111000010 "
b1010100101000010 "
b1110100101000010 "
0!!
0~
0}
1|
0z
0x
0t
0r
0k
0j
0h
1g
0f
1b
1a
1`
0%
0]
02
0<
01
1.
1G
1E
19
03
1_
0\
1=
0/
1#
0$
0-
08
0F
1A
0K
0G
0B
1N
1L
1H
0Q
0N
0I
1T
1R
1O
0U
0T
0P
1X
1V
1W
1[
1]
1\
0Y
0X
0_
0Z
0[
1$
0#
#320000
b1001001101011000 !
b1000001101011000 !
b1000001001011000 !
b1110100101000110 "
b1110100101000100 "
b1000011001011000 !
b1110100101001100 "
b11001011000 !
b1110110101001100 "
b10001011000 !
b1110110101001101 "
b110110101001101 "
b10001010000 !
b100110101001101 "
b10001010010 !
b10010001010010 !
b100110101011101 "
b100110111011101 "
b110111011101 "
1o
0n
1m
1l
1k
1h
1e
0b
0a
0`
1~
0|
1{
0w
0v
1u
0s
1r
0p
1%
1Z
1C
10
0E
1<
11
0.
0\
09
0,
0=
1/
0$
1-
18
1F
0A
1K
1B
0L
0H
1Q
1M
1I
0R
0O
0M
1U
1P
0V
0W
0]
1Y
1_
1#
#330000
b10010000010010 !
b1110111011101 "
b1110110011101 "
b10010000010110 !
b1110010011101 "
b10010000010111 !
b10010010010111 !
b11010010010111 !
b1110010011001 "
b1011010010010111 !
b1100010011001 "
b1100010011000 "
b11100010011000 "
b11100000011000 "
0o
0m
0i
0h
0g
0e
1c
1b
1!!
1}
0y
1x
1s
1p
0%
1]
1J
00
1G
1E
15
0<
16
0_
1\
0>
0/
0#
1$
0-
08
0F
1A
0K
0G
0B
1N
1L
1H
0Q
0N
0I
1T
1R
1O
0U
0T
0P
1V
1W
0Y
0Z
#340000
b11000000011000 "
b11001000011000 "
b11001000111000 "
b11001000111010 "
b1011000010010111 !
b1011000010011111 !
b1011000010011101 !
b11001000101010 "
b111001000101010 "
b1011000011011101 !
b110001000101010 "
b110001001101010 "
b1011000011011001 !
b1011000011011000 !
b1010000011011000 !
0!!
0~
0}
1|
1y
0u
0s
1n
0k
1j
1i
1f
0d
0c
1a
1%
0E
05
19
07
12
06
1.
18
1?
1>
1=
17
0A
0?
08
1G
1B
1A
0H
0G
0B
1N
1I
1H
0O
0N
0I
1P
1O
0W
0P
1Y
1X
1W
1Z
1[
0Y
0X
0[
0Z
#350000
b1010000011111000 !
b1010000011101000 !
b1000000011101000 !
b110001101101010 "
b1000000001101000 !
b110001101101110 "
b110001111101110 "
b110101111101110 "
b110101111001110 "
b110101111001100 "
b1000010001101000 !
b1000010001101010 !
b111101111001100 "
b1000010001101110 !
b1001010001101110 !
0n
1m
0j
1h
1g
1d
1c
1~
1}
0{
1z
0x
1u
1s
0r
0%
0J
10
02
01
1E
15
#360000
b1101010001101110 !
b1101110001101110 !
b1101110101101110 !
b111101111000100 "
b1111101111000100 "
b1111111111000100 "
b1111111111000101 "
b1111110111000101 "
b1111110111010101 "
b1011110111010101 "
b1101110100101110 !
b1101110100101111 !
b1111110100101111 !
b1011110111010001 "
b1011110101010001 "
b1011010101010001 "
b1011010101010011 "
b1111110100101101 !
b1010010101010011 "
b1111110100101001 !
1o
1n
0m
0l
1k
0h
0f
1e
0d
0c
0a
1`
1!!
0~
0}
0y
1w
1t
1r
1q
1%
0C
00
0E
09
05
11
1,
1<
0.
0=
1/
1-
18
1F
0A
1K
1D
1G
1B
0L
0H
0D
1Q
1I
0R
0O
1U
1P
0V
0W
0]
0\
1Y
1_
1Z
0$
1#
#370000
b1000010101010011 "
b1000010100010011 "
b1111110100001001 !
b1111110100011001 !
b1000010000010011 "
b1111110110011001 !
b1111010110011001 !
b10000010011 "
b1111010110011000 !
b1101010110011000 !
b110000010011 "
b110000010001 "
b1101010110011010 !
b1110000010001 "
0!!
1~
1{
0z
1x
0t
0r
0n
0i
0g
1d
1c
0b
0`
0%
1J
1C
0G
0,
0_
1\
0#
1$
#380000
b101010110011010 !
b101000110011010 !
b100000110011010 !
b110011010 !
b1110000011001 "
b1100000011001 "
b1100000011000 "
b1100000001000 "
b101100000001000 "
b110011110 !
b111100000001000 "
b111100001001000 "
b110111110 !
b100111110 !
b10000100111110 !
b10000100111100 !
0o
1l
0k
1i
0e
1b
1a
0~
1}
1z
0x
0u
0s
1r
0q
0p
1%
0<
01
1.
0J
0C
1,
1_
0\
1=
0/
1#
0$
0-
08
0F
1A
0K
0B
1L
1H
0Q
0I
1R
1O
0U
0P
1V
1W
1]
0Y
0_
0Z
0#
#390000
b10001100111100 !
b111100001101000 "
b111101001101000 "
b10001101111100 !
b111101101101000 "
b10101101111100 !
b10101101111101 !
b111001101101000 "
b1010101101111101 !
b111001101100000 "
b111001101100001 "
b11001101100001 "
b1010101101111001 !
b1010101101011001 !
b1010101111011001 !
b1000101111011001 !
1o
0l
1j
1g
1f
0d
0a
1!!
0}
0z
1y
1x
1v
1t
0r
1p
0%
1J
1C
1\
1$
#400000
b11001101100101 "
b1000111111011001 !
b11001101110101 "
b11000101110101 "
b1000011111011001 !
b11100101110101 "
b1000011111011101 !
b1000011111111101 !
1}
1z
1u
0t
1m
1k
0f
1d
1%
1E
15
19
#410000
b1000011111110101 !
b1001011111110101 !
b11110101110101 "
b1110101110101 "
b1110101010101 "
b1001011110110101 !
b1110101011101 "
b1110101011001 "
b1001001110110101 !
b1111101011001 "
b1001001110110001 !
0m
1l
0j
1f
1e
0b
0}
0|
0y
0u
1s
0%
09
05
16
11
0.
0,
0>
0=
#420000
b1001001010110001 !
b1111111011001 "
b1001001010100001 !
b1111111011011 "
b111111011011 "
b1101001010100001 !
b111110011011 "
b1101000010100001 !
b1101000000100001 !
b1111000000100001 !
b1111100000100001 !
b1111100000101001 !
b101110011011 "
b10101110011011 "
b10101110111011 "
b1111100001101001 !
b10101110110011 "
b10101110110111 "
b1111110001101001 !
b1111110001101101 !
1n
1m
0l
1j
0i
1h
0e
0c
1b
1}
1|
0{
1y
0x
0w
0v
1u
1t
1r
1q
1%
0J
10
15
1/
1,
1<
06
19
07
12
18
1?
1>
17
13
0A
0?
1-
1B
1F
0H
1K
1I
0L
0O
1Q
1P
0R
0W
1U
1Y
0V
1Z
0]
#430000
b10101010110111 "
b10101010110110 "
b110101010110110 "
b110101010100110 "
b1111110001001101 !
b1110110001001101 !
b110100010100110 "
b110100000100110 "
b1110110001011101 !
b111100000100110 "
b1110110011011101 !
b1110110011010101 !
b1110110010010101 !
b111100000100010 "
0|
1{
0z
0y
1x
0s
0o
0m
0k
0h
0g
0f
1c
1a
0%
1J
00
01
1]
1G
09
0<
16
03
1=
0/
08
0-
1A
0F
0G
0B
0K
1H
1N
1L
0N
0I
0Q
1O
1R
0P
0U
1W
1V
0Y
0Z
#440000
b1111100000100010 "
b1110110010010111 !
b110110010010111 !
b1111000000100010 "
b110110110010111 !
b1111000000100000 "
b10110110010111 !
b110110010111 !
b10110010111 !
b1111010000100000 "
b1111010000000000 "
b1111010000001000 "
b10110010011 !
b1111010000001001 "
b1110010000001001 "
b10100010011 !
b10101010011 !
1~
0}
1y
0x
1w
0t
0r
0q
0p
1o
0n
1l
0j
1e
0d
0c
1`
1%
0J
0C
06
1.
1_
0E
05
0=
0,
1=
1-
1#
0-
1F
1:
0F
0:
1K
1D
0;
1;
0L
0K
0D
1Q
1M
1L
0R
0Q
0M
1U
1R
0V
0U
0]
0\
1V
0$
1]
1\
1$
#450000
b10101010010 !
b1110010001001001 "
b101010010 !
b1110010101001001 "
b1010010101001001 "
b101110010 !
b1000101110010 !
b1010011101001001 "
b1000101100010 !
b1000101101010 !
b1001000101101010 !
b1010111101001001 "
b1001000001101010 !
b1010111101001011 "
b1101000001101010 !
b1010111101000011 "
b1101000001101110 !
b1011111101000011 "
b1101000011101110 !
1n
0l
1i
1g
1f
1d
1c
0a
0!!
1}
1|
0{
1z
1x
0w
0u
1s
1q
1p
0%
1E
19
02
1<
13
0.
1Z
1J
1C
0_
03
0=
1/
0#
18
1-
0A
1F
1B
1K
0H
0L
1I
1Q
0O
0R
1P
1U
0W
0V
1Y
0]
0\
1_
0$
1#
